{
 "actions": [],
 "allow_import": 1,
 "autoname": "format:{rack_no}",
 "creation": "2021-05-31 13:27:59.621008",
 "doctype": "DocType",
 "editable_grid": 1,
 "engine": "InnoDB",
 "field_order": [
  "rack_no",
  "parent_warehouse",
  "column_break_2",
  "is_primary",
  "is_disabled",
  "racking_details_section",
  "rack_stock"
 ],
 "fields": [
  {
   "default": "0",
   "fieldname": "is_disabled",
   "fieldtype": "Check",
   "label": "Disable"
  },
  {
   "fieldname": "column_break_2",
   "fieldtype": "Column Break"
  },
  {
   "fieldname": "racking_details_section",
   "fieldtype": "Section Break",
   "label": "Racking Details"
  },
  {
   "fieldname": "rack_no",
   "fieldtype": "Data",
   "in_list_view": 1,
   "label": "Rack Number",
   "reqd": 1,
   "unique": 1
  },
  {
   "fieldname": "rack_stock",
   "fieldtype": "Table",
   "label": "Stock",
   "options": "Rack Stock",
   "read_only": 1
  },
  {
   "default": "0",
   "fieldname": "is_primary",
   "fieldtype": "Check",
   "label": "Is primary warehouse",
   "set_only_once": 1
  },
  {
   "fieldname": "parent_warehouse",
   "fieldtype": "Link",
   "label": "Parent",
   "options": "Warehouse",
   "reqd": 1
  }
 ],
 "index_web_pages_for_search": 1,
 "links": [],
 "modified": "2021-10-18 17:01:34.768319",
 "modified_by": "Administrator",
 "module": "Rack Management",
 "name": "Racking Warehouse",
 "owner": "Administrator",
 "permissions": [
  {
   "create": 1,
   "delete": 1,
   "email": 1,
   "export": 1,
   "print": 1,
   "read": 1,
   "report": 1,
   "role": "System Manager",
   "share": 1,
   "write": 1
  },
  {
   "email": 1,
   "export": 1,
   "print": 1,
   "read": 1,
   "report": 1,
   "role": "Stock User",
   "share": 1
  }
 ],
 "search_fields": "parent_warehouse",
 "sort_field": "modified",
 "sort_order": "DESC",
 "track_changes": 1
}