{
 "actions": [],
 "allow_copy": 1,
 "autoname": "RLE/.#####",
 "creation": "2021-06-21 11:53:59.294647",
 "doctype": "DocType",
 "document_type": "Other",
 "engine": "InnoDB",
 "field_order": [
  "item_code",
  "warehouse",
  "rack_warehouse",
  "rack_location",
  "posting_date",
  "posting_time",
  "column_break_6",
  "voucher_type",
  "voucher_no",
  "voucher_detail_no",
  "section_break_11",
  "actual_qty",
  "qty_after_transaction",
  "column_break_17",
  "company",
  "stock_uom",
  "is_cancelled"
 ],
 "fields": [
  {
   "fieldname": "item_code",
   "fieldtype": "Link",
   "in_filter": 1,
   "in_list_view": 1,
   "in_standard_filter": 1,
   "label": "Item Code",
   "oldfieldname": "item_code",
   "oldfieldtype": "Link",
   "options": "Item",
   "print_width": "100px",
   "read_only": 1,
   "search_index": 1,
   "width": "100px"
  },
  {
   "fieldname": "warehouse",
   "fieldtype": "Link",
   "in_filter": 1,
   "in_list_view": 1,
   "in_standard_filter": 1,
   "label": "Warehouse",
   "oldfieldname": "warehouse",
   "oldfieldtype": "Link",
   "options": "Warehouse",
   "print_width": "100px",
   "read_only": 1,
   "search_index": 1,
   "width": "100px"
  },
  {
   "fieldname": "rack_warehouse",
   "fieldtype": "Link",
   "label": "Rack Warehouse",
   "options": "Racking Warehouse"
  },
  {
   "fieldname": "rack_location",
   "fieldtype": "Link",
   "label": "Rack Location",
   "options": "Rack Stock"
  },
  {
   "fieldname": "posting_date",
   "fieldtype": "Date",
   "in_filter": 1,
   "in_list_view": 1,
   "label": "Posting Date",
   "oldfieldname": "posting_date",
   "oldfieldtype": "Date",
   "print_width": "100px",
   "read_only": 1,
   "search_index": 1,
   "width": "100px"
  },
  {
   "fieldname": "posting_time",
   "fieldtype": "Time",
   "label": "Posting Time",
   "oldfieldname": "posting_time",
   "oldfieldtype": "Time",
   "print_width": "100px",
   "read_only": 1,
   "width": "100px"
  },
  {
   "fieldname": "column_break_6",
   "fieldtype": "Column Break"
  },
  {
   "fieldname": "voucher_type",
   "fieldtype": "Link",
   "in_filter": 1,
   "label": "Voucher Type",
   "oldfieldname": "voucher_type",
   "oldfieldtype": "Data",
   "options": "DocType",
   "print_width": "150px",
   "read_only": 1,
   "width": "150px"
  },
  {
   "fieldname": "voucher_no",
   "fieldtype": "Dynamic Link",
   "in_filter": 1,
   "in_list_view": 1,
   "in_standard_filter": 1,
   "label": "Voucher No",
   "oldfieldname": "voucher_no",
   "oldfieldtype": "Data",
   "options": "voucher_type",
   "print_width": "150px",
   "read_only": 1,
   "width": "150px"
  },
  {
   "fieldname": "voucher_detail_no",
   "fieldtype": "Data",
   "label": "Voucher Detail No",
   "oldfieldname": "voucher_detail_no",
   "oldfieldtype": "Data",
   "print_width": "150px",
   "read_only": 1,
   "width": "150px"
  },
  {
   "fieldname": "section_break_11",
   "fieldtype": "Section Break"
  },
  {
   "fieldname": "actual_qty",
   "fieldtype": "Float",
   "in_filter": 1,
   "in_list_view": 1,
   "label": "Actual Quantity",
   "oldfieldname": "actual_qty",
   "oldfieldtype": "Currency",
   "print_width": "150px",
   "read_only": 1,
   "width": "150px"
  },
  {
   "fieldname": "qty_after_transaction",
   "fieldtype": "Float",
   "in_filter": 1,
   "label": "Actual Qty After Transaction",
   "oldfieldname": "bin_aqat",
   "oldfieldtype": "Currency",
   "print_width": "150px",
   "read_only": 1,
   "width": "150px"
  },
  {
   "fieldname": "column_break_17",
   "fieldtype": "Column Break"
  },
  {
   "fieldname": "company",
   "fieldtype": "Link",
   "in_filter": 1,
   "label": "Company",
   "oldfieldname": "company",
   "oldfieldtype": "Data",
   "options": "Company",
   "print_width": "150px",
   "read_only": 1,
   "search_index": 1,
   "width": "150px"
  },
  {
   "fieldname": "stock_uom",
   "fieldtype": "Link",
   "label": "Stock UOM",
   "oldfieldname": "stock_uom",
   "oldfieldtype": "Data",
   "options": "UOM",
   "print_width": "150px",
   "read_only": 1,
   "width": "150px"
  },
  {
   "default": "0",
   "fieldname": "is_cancelled",
   "fieldtype": "Check",
   "label": "Is Cancelled",
   "report_hide": 1
  }
 ],
 "hide_toolbar": 1,
 "icon": "fa fa-list",
 "in_create": 1,
 "index_web_pages_for_search": 1,
 "links": [],
 "modified": "2021-09-17 13:56:07.459257",
 "modified_by": "Administrator",
 "module": "Rack Management",
 "name": "Rack Ledger Entry",
 "owner": "Administrator",
 "permissions": [
  {
   "export": 1,
   "print": 1,
   "read": 1,
   "report": 1,
   "role": "Stock User"
  },
  {
   "export": 1,
   "read": 1,
   "report": 1,
   "role": "Accounts Manager"
  }
 ],
 "sort_field": "modified",
 "sort_order": "DESC"
}